<mxfile host="app.diagrams.net" modified="2023-09-16T08:21:40.361Z" agent="Mozilla/5.0 (Macintosh; Intel Mac OS X 10_15_7) AppleWebKit/537.36 (KHTML, like Gecko) Chrome/115.0.0.0 Safari/537.36" etag="oF_oHgDVOGuNbwlF-G_A" version="21.7.4" type="device" pages="6">
  <diagram name="勉強" id="zakVlJyb0n0U9aL_ddQq">
    <mxGraphModel dx="1363" dy="881" grid="1" gridSize="10" guides="1" tooltips="1" connect="1" arrows="1" fold="1" page="1" pageScale="1" pageWidth="827" pageHeight="1169" math="0" shadow="0">
      <root>
        <mxCell id="0" />
        <mxCell id="1" parent="0" />
        <mxCell id="Sv73f4_a63RMUqkT9Hlo-1" value="" style="group" vertex="1" connectable="0" parent="1">
          <mxGeometry x="10" y="20" width="1230" height="570" as="geometry" />
        </mxCell>
        <mxCell id="Qw_zaxUT-TO5-yvkM33U-3" value="Tool 勉強" style="swimlane;whiteSpace=wrap;html=1;" parent="Sv73f4_a63RMUqkT9Hlo-1" vertex="1">
          <mxGeometry x="140" width="1090" height="490" as="geometry" />
        </mxCell>
        <mxCell id="Qw_zaxUT-TO5-yvkM33U-10" style="edgeStyle=orthogonalEdgeStyle;rounded=0;orthogonalLoop=1;jettySize=auto;html=1;entryX=0.5;entryY=0;entryDx=0;entryDy=0;" parent="Qw_zaxUT-TO5-yvkM33U-3" target="Qw_zaxUT-TO5-yvkM33U-15" edge="1">
          <mxGeometry relative="1" as="geometry">
            <mxPoint x="282" y="140" as="targetPoint" />
            <mxPoint x="497" y="70" as="sourcePoint" />
          </mxGeometry>
        </mxCell>
        <mxCell id="Qw_zaxUT-TO5-yvkM33U-13" style="edgeStyle=orthogonalEdgeStyle;rounded=0;orthogonalLoop=1;jettySize=auto;html=1;entryX=0.5;entryY=0;entryDx=0;entryDy=0;exitX=1;exitY=0.5;exitDx=0;exitDy=0;" parent="Qw_zaxUT-TO5-yvkM33U-3" source="Qw_zaxUT-TO5-yvkM33U-5" edge="1">
          <mxGeometry relative="1" as="geometry">
            <mxPoint x="750" y="70" as="sourcePoint" />
            <mxPoint x="965" y="140" as="targetPoint" />
          </mxGeometry>
        </mxCell>
        <mxCell id="Qw_zaxUT-TO5-yvkM33U-5" value="Tools&lt;br&gt;勉強" style="rounded=1;arcSize=10;whiteSpace=wrap;html=1;align=center;" parent="Qw_zaxUT-TO5-yvkM33U-3" vertex="1">
          <mxGeometry x="490" y="50" width="100" height="40" as="geometry" />
        </mxCell>
        <mxCell id="Qw_zaxUT-TO5-yvkM33U-12" value="" style="endArrow=classic;html=1;rounded=0;exitX=0;exitY=0.5;exitDx=0;exitDy=0;" parent="Qw_zaxUT-TO5-yvkM33U-3" edge="1">
          <mxGeometry width="50" height="50" relative="1" as="geometry">
            <mxPoint x="385" y="70" as="sourcePoint" />
            <mxPoint x="330" y="150" as="targetPoint" />
            <Array as="points">
              <mxPoint x="330" y="70" />
            </Array>
          </mxGeometry>
        </mxCell>
        <mxCell id="Qw_zaxUT-TO5-yvkM33U-14" value="" style="endArrow=classic;html=1;rounded=0;exitX=1;exitY=0.5;exitDx=0;exitDy=0;" parent="Qw_zaxUT-TO5-yvkM33U-3" source="Qw_zaxUT-TO5-yvkM33U-5" edge="1">
          <mxGeometry width="50" height="50" relative="1" as="geometry">
            <mxPoint x="685" y="70" as="sourcePoint" />
            <mxPoint x="720" y="140" as="targetPoint" />
            <Array as="points">
              <mxPoint x="720" y="70" />
            </Array>
          </mxGeometry>
        </mxCell>
        <mxCell id="Qw_zaxUT-TO5-yvkM33U-15" value="course" style="ellipse;shape=doubleEllipse;margin=3;whiteSpace=wrap;html=1;align=center;" parent="Qw_zaxUT-TO5-yvkM33U-3" vertex="1">
          <mxGeometry x="60" y="150" width="100" height="40" as="geometry" />
        </mxCell>
        <mxCell id="Qw_zaxUT-TO5-yvkM33U-16" value="辞書" style="ellipse;shape=doubleEllipse;margin=3;whiteSpace=wrap;html=1;align=center;" parent="Qw_zaxUT-TO5-yvkM33U-3" vertex="1">
          <mxGeometry x="280" y="140" width="100" height="40" as="geometry" />
        </mxCell>
        <mxCell id="Qw_zaxUT-TO5-yvkM33U-17" value="試験" style="ellipse;shape=doubleEllipse;margin=3;whiteSpace=wrap;html=1;align=center;" parent="Qw_zaxUT-TO5-yvkM33U-3" vertex="1">
          <mxGeometry x="670" y="140" width="100" height="40" as="geometry" />
        </mxCell>
        <mxCell id="Qw_zaxUT-TO5-yvkM33U-18" value="Postcards" style="ellipse;shape=doubleEllipse;margin=3;whiteSpace=wrap;html=1;align=center;" parent="Qw_zaxUT-TO5-yvkM33U-3" vertex="1">
          <mxGeometry x="915" y="140" width="100" height="40" as="geometry" />
        </mxCell>
        <mxCell id="Qw_zaxUT-TO5-yvkM33U-20" value="Level course" style="ellipse;whiteSpace=wrap;html=1;align=center;dashed=1;" parent="Qw_zaxUT-TO5-yvkM33U-3" vertex="1">
          <mxGeometry x="60" y="230" width="100" height="40" as="geometry" />
        </mxCell>
        <mxCell id="Qw_zaxUT-TO5-yvkM33U-23" value="" style="endArrow=none;dashed=1;html=1;dashPattern=1 3;strokeWidth=2;rounded=0;exitX=0.5;exitY=1;exitDx=0;exitDy=0;entryX=0.5;entryY=0;entryDx=0;entryDy=0;" parent="Qw_zaxUT-TO5-yvkM33U-3" source="Qw_zaxUT-TO5-yvkM33U-15" target="Qw_zaxUT-TO5-yvkM33U-20" edge="1">
          <mxGeometry width="50" height="50" relative="1" as="geometry">
            <mxPoint x="500" y="390" as="sourcePoint" />
            <mxPoint x="550" y="340" as="targetPoint" />
          </mxGeometry>
        </mxCell>
        <mxCell id="PjmL6aWfVuDunAiGGK3G-26" style="edgeStyle=orthogonalEdgeStyle;rounded=0;orthogonalLoop=1;jettySize=auto;html=1;entryX=0.5;entryY=0;entryDx=0;entryDy=0;exitX=0.5;exitY=1;exitDx=0;exitDy=0;" parent="Qw_zaxUT-TO5-yvkM33U-3" source="Qw_zaxUT-TO5-yvkM33U-20" target="PjmL6aWfVuDunAiGGK3G-20" edge="1">
          <mxGeometry relative="1" as="geometry">
            <mxPoint x="110" y="370" as="sourcePoint" />
          </mxGeometry>
        </mxCell>
        <mxCell id="PjmL6aWfVuDunAiGGK3G-20" value="Level" style="swimlane;fontStyle=0;childLayout=stackLayout;horizontal=1;startSize=26;horizontalStack=0;resizeParent=1;resizeParentMax=0;resizeLast=0;collapsible=1;marginBottom=0;align=center;fontSize=14;" parent="Qw_zaxUT-TO5-yvkM33U-3" vertex="1">
          <mxGeometry x="30" y="330" width="160" height="146" as="geometry" />
        </mxCell>
        <mxCell id="PjmL6aWfVuDunAiGGK3G-21" value="Từ vựng" style="text;strokeColor=none;fillColor=none;spacingLeft=4;spacingRight=4;overflow=hidden;rotatable=0;points=[[0,0.5],[1,0.5]];portConstraint=eastwest;fontSize=12;whiteSpace=wrap;html=1;" parent="PjmL6aWfVuDunAiGGK3G-20" vertex="1">
          <mxGeometry y="26" width="160" height="30" as="geometry" />
        </mxCell>
        <mxCell id="PjmL6aWfVuDunAiGGK3G-22" value="Ngữ pháp" style="text;strokeColor=none;fillColor=none;spacingLeft=4;spacingRight=4;overflow=hidden;rotatable=0;points=[[0,0.5],[1,0.5]];portConstraint=eastwest;fontSize=12;whiteSpace=wrap;html=1;" parent="PjmL6aWfVuDunAiGGK3G-20" vertex="1">
          <mxGeometry y="56" width="160" height="30" as="geometry" />
        </mxCell>
        <mxCell id="PjmL6aWfVuDunAiGGK3G-23" value="Bài tập (Nếu có)" style="text;strokeColor=none;fillColor=none;spacingLeft=4;spacingRight=4;overflow=hidden;rotatable=0;points=[[0,0.5],[1,0.5]];portConstraint=eastwest;fontSize=12;whiteSpace=wrap;html=1;" parent="PjmL6aWfVuDunAiGGK3G-20" vertex="1">
          <mxGeometry y="86" width="160" height="30" as="geometry" />
        </mxCell>
        <mxCell id="PjmL6aWfVuDunAiGGK3G-24" value="Luyện thi" style="text;strokeColor=none;fillColor=none;spacingLeft=4;spacingRight=4;overflow=hidden;rotatable=0;points=[[0,0.5],[1,0.5]];portConstraint=eastwest;fontSize=12;whiteSpace=wrap;html=1;" parent="PjmL6aWfVuDunAiGGK3G-20" vertex="1">
          <mxGeometry y="116" width="160" height="30" as="geometry" />
        </mxCell>
        <mxCell id="PjmL6aWfVuDunAiGGK3G-27" value="Search Input" style="ellipse;whiteSpace=wrap;html=1;align=center;dashed=1;" parent="Qw_zaxUT-TO5-yvkM33U-3" vertex="1">
          <mxGeometry x="214" y="230" width="100" height="40" as="geometry" />
        </mxCell>
        <mxCell id="PjmL6aWfVuDunAiGGK3G-29" value="" style="endArrow=none;dashed=1;html=1;dashPattern=1 3;strokeWidth=2;rounded=0;exitX=0.5;exitY=1;exitDx=0;exitDy=0;entryX=0.5;entryY=0;entryDx=0;entryDy=0;" parent="Qw_zaxUT-TO5-yvkM33U-3" source="Qw_zaxUT-TO5-yvkM33U-16" target="PjmL6aWfVuDunAiGGK3G-27" edge="1">
          <mxGeometry width="50" height="50" relative="1" as="geometry">
            <mxPoint x="120" y="200" as="sourcePoint" />
            <mxPoint x="120" y="240" as="targetPoint" />
          </mxGeometry>
        </mxCell>
        <mxCell id="PjmL6aWfVuDunAiGGK3G-30" value="UI search" style="ellipse;whiteSpace=wrap;html=1;align=center;dashed=1;" parent="Qw_zaxUT-TO5-yvkM33U-3" vertex="1">
          <mxGeometry x="370" y="230" width="100" height="40" as="geometry" />
        </mxCell>
        <mxCell id="PjmL6aWfVuDunAiGGK3G-31" value="" style="endArrow=none;dashed=1;html=1;dashPattern=1 3;strokeWidth=2;rounded=0;exitX=0.5;exitY=1;exitDx=0;exitDy=0;" parent="Qw_zaxUT-TO5-yvkM33U-3" source="Qw_zaxUT-TO5-yvkM33U-16" target="PjmL6aWfVuDunAiGGK3G-30" edge="1">
          <mxGeometry width="50" height="50" relative="1" as="geometry">
            <mxPoint x="340" y="190" as="sourcePoint" />
            <mxPoint x="274" y="240" as="targetPoint" />
          </mxGeometry>
        </mxCell>
        <mxCell id="PjmL6aWfVuDunAiGGK3G-32" value="Call API từ điển&amp;nbsp;" style="text;strokeColor=none;fillColor=none;spacingLeft=4;spacingRight=4;overflow=hidden;rotatable=0;points=[[0,0.5],[1,0.5]];portConstraint=eastwest;fontSize=12;whiteSpace=wrap;html=1;" parent="Qw_zaxUT-TO5-yvkM33U-3" vertex="1">
          <mxGeometry x="370" y="190" width="100" height="30" as="geometry" />
        </mxCell>
        <mxCell id="PjmL6aWfVuDunAiGGK3G-36" style="edgeStyle=orthogonalEdgeStyle;rounded=0;orthogonalLoop=1;jettySize=auto;html=1;" parent="Qw_zaxUT-TO5-yvkM33U-3" source="PjmL6aWfVuDunAiGGK3G-33" target="PjmL6aWfVuDunAiGGK3G-35" edge="1">
          <mxGeometry relative="1" as="geometry" />
        </mxCell>
        <mxCell id="PjmL6aWfVuDunAiGGK3G-33" value="Level" style="ellipse;whiteSpace=wrap;html=1;align=center;dashed=1;" parent="Qw_zaxUT-TO5-yvkM33U-3" vertex="1">
          <mxGeometry x="670" y="210" width="100" height="40" as="geometry" />
        </mxCell>
        <mxCell id="PjmL6aWfVuDunAiGGK3G-34" value="" style="endArrow=none;dashed=1;html=1;dashPattern=1 3;strokeWidth=2;rounded=0;exitX=0.5;exitY=1;exitDx=0;exitDy=0;entryX=0.5;entryY=0;entryDx=0;entryDy=0;" parent="Qw_zaxUT-TO5-yvkM33U-3" source="Qw_zaxUT-TO5-yvkM33U-17" target="PjmL6aWfVuDunAiGGK3G-33" edge="1">
          <mxGeometry width="50" height="50" relative="1" as="geometry">
            <mxPoint x="340" y="190" as="sourcePoint" />
            <mxPoint x="274" y="240" as="targetPoint" />
          </mxGeometry>
        </mxCell>
        <mxCell id="PjmL6aWfVuDunAiGGK3G-38" style="edgeStyle=orthogonalEdgeStyle;rounded=0;orthogonalLoop=1;jettySize=auto;html=1;entryX=0.5;entryY=0;entryDx=0;entryDy=0;" parent="Qw_zaxUT-TO5-yvkM33U-3" source="PjmL6aWfVuDunAiGGK3G-35" target="PjmL6aWfVuDunAiGGK3G-37" edge="1">
          <mxGeometry relative="1" as="geometry" />
        </mxCell>
        <mxCell id="PjmL6aWfVuDunAiGGK3G-35" value="List đề thi thử" style="ellipse;whiteSpace=wrap;html=1;align=center;" parent="Qw_zaxUT-TO5-yvkM33U-3" vertex="1">
          <mxGeometry x="670" y="300" width="100" height="40" as="geometry" />
        </mxCell>
        <mxCell id="PjmL6aWfVuDunAiGGK3G-37" value="UI đề thi thử" style="ellipse;whiteSpace=wrap;html=1;align=center;" parent="Qw_zaxUT-TO5-yvkM33U-3" vertex="1">
          <mxGeometry x="670" y="390" width="100" height="40" as="geometry" />
        </mxCell>
        <mxCell id="PjmL6aWfVuDunAiGGK3G-43" style="edgeStyle=orthogonalEdgeStyle;rounded=0;orthogonalLoop=1;jettySize=auto;html=1;" parent="Qw_zaxUT-TO5-yvkM33U-3" source="PjmL6aWfVuDunAiGGK3G-39" target="PjmL6aWfVuDunAiGGK3G-41" edge="1">
          <mxGeometry relative="1" as="geometry" />
        </mxCell>
        <mxCell id="PjmL6aWfVuDunAiGGK3G-39" value="Level" style="ellipse;whiteSpace=wrap;html=1;align=center;dashed=1;" parent="Qw_zaxUT-TO5-yvkM33U-3" vertex="1">
          <mxGeometry x="915" y="210" width="100" height="40" as="geometry" />
        </mxCell>
        <mxCell id="PjmL6aWfVuDunAiGGK3G-40" value="" style="endArrow=none;dashed=1;html=1;dashPattern=1 3;strokeWidth=2;rounded=0;exitX=0.5;exitY=1;exitDx=0;exitDy=0;entryX=0.5;entryY=0;entryDx=0;entryDy=0;" parent="Qw_zaxUT-TO5-yvkM33U-3" source="Qw_zaxUT-TO5-yvkM33U-18" target="PjmL6aWfVuDunAiGGK3G-39" edge="1">
          <mxGeometry width="50" height="50" relative="1" as="geometry">
            <mxPoint x="730" y="190" as="sourcePoint" />
            <mxPoint x="730" y="220" as="targetPoint" />
          </mxGeometry>
        </mxCell>
        <mxCell id="PjmL6aWfVuDunAiGGK3G-44" style="edgeStyle=orthogonalEdgeStyle;rounded=0;orthogonalLoop=1;jettySize=auto;html=1;entryX=0.5;entryY=0;entryDx=0;entryDy=0;" parent="Qw_zaxUT-TO5-yvkM33U-3" source="PjmL6aWfVuDunAiGGK3G-41" target="PjmL6aWfVuDunAiGGK3G-42" edge="1">
          <mxGeometry relative="1" as="geometry" />
        </mxCell>
        <mxCell id="PjmL6aWfVuDunAiGGK3G-41" value="List postcards" style="ellipse;whiteSpace=wrap;html=1;align=center;" parent="Qw_zaxUT-TO5-yvkM33U-3" vertex="1">
          <mxGeometry x="915" y="300" width="100" height="40" as="geometry" />
        </mxCell>
        <mxCell id="PjmL6aWfVuDunAiGGK3G-42" value="Video, mp3 post card" style="ellipse;whiteSpace=wrap;html=1;align=center;" parent="Qw_zaxUT-TO5-yvkM33U-3" vertex="1">
          <mxGeometry x="915" y="390" width="100" height="40" as="geometry" />
        </mxCell>
        <mxCell id="PjmL6aWfVuDunAiGGK3G-46" style="edgeStyle=orthogonalEdgeStyle;rounded=0;orthogonalLoop=1;jettySize=auto;html=1;entryX=0;entryY=0.5;entryDx=0;entryDy=0;" parent="Qw_zaxUT-TO5-yvkM33U-3" source="PjmL6aWfVuDunAiGGK3G-24" target="PjmL6aWfVuDunAiGGK3G-35" edge="1">
          <mxGeometry relative="1" as="geometry" />
        </mxCell>
        <mxCell id="PjmL6aWfVuDunAiGGK3G-5" value="" style="group" parent="Sv73f4_a63RMUqkT9Hlo-1" vertex="1" connectable="0">
          <mxGeometry y="90" width="140" height="60" as="geometry" />
        </mxCell>
        <mxCell id="Qw_zaxUT-TO5-yvkM33U-4" style="edgeStyle=orthogonalEdgeStyle;rounded=0;orthogonalLoop=1;jettySize=auto;html=1;" parent="PjmL6aWfVuDunAiGGK3G-5" source="Qw_zaxUT-TO5-yvkM33U-1" edge="1">
          <mxGeometry relative="1" as="geometry">
            <mxPoint x="140" y="30" as="targetPoint" />
          </mxGeometry>
        </mxCell>
        <mxCell id="Qw_zaxUT-TO5-yvkM33U-1" value="User" style="shape=umlActor;verticalLabelPosition=bottom;verticalAlign=top;html=1;outlineConnect=0;" parent="PjmL6aWfVuDunAiGGK3G-5" vertex="1">
          <mxGeometry width="38.18181818181818" height="60" as="geometry" />
        </mxCell>
      </root>
    </mxGraphModel>
  </diagram>
  <diagram id="m6vi62QR2iU2Rorad-86" name="毎日日記">
    <mxGraphModel dx="1590" dy="1028" grid="1" gridSize="10" guides="1" tooltips="1" connect="1" arrows="1" fold="1" page="1" pageScale="1" pageWidth="827" pageHeight="1169" math="0" shadow="0">
      <root>
        <mxCell id="0" />
        <mxCell id="1" parent="0" />
        <mxCell id="SmAVnXv6OuDXm1kb2yZO-1" value="" style="group" vertex="1" connectable="0" parent="1">
          <mxGeometry x="11" y="30" width="1230" height="570" as="geometry" />
        </mxCell>
        <mxCell id="SmAVnXv6OuDXm1kb2yZO-2" value="Tool 毎日日記" style="swimlane;whiteSpace=wrap;html=1;" vertex="1" parent="SmAVnXv6OuDXm1kb2yZO-1">
          <mxGeometry x="140" width="1090" height="450" as="geometry" />
        </mxCell>
        <mxCell id="SmAVnXv6OuDXm1kb2yZO-3" style="edgeStyle=orthogonalEdgeStyle;rounded=0;orthogonalLoop=1;jettySize=auto;html=1;entryX=0.5;entryY=0;entryDx=0;entryDy=0;" edge="1" parent="SmAVnXv6OuDXm1kb2yZO-2" target="SmAVnXv6OuDXm1kb2yZO-8">
          <mxGeometry relative="1" as="geometry">
            <mxPoint x="282" y="140" as="targetPoint" />
            <mxPoint x="497" y="70" as="sourcePoint" />
          </mxGeometry>
        </mxCell>
        <mxCell id="SmAVnXv6OuDXm1kb2yZO-5" value="Tools&lt;br&gt;毎日日記" style="rounded=1;arcSize=10;whiteSpace=wrap;html=1;align=center;" vertex="1" parent="SmAVnXv6OuDXm1kb2yZO-2">
          <mxGeometry x="490" y="50" width="100" height="40" as="geometry" />
        </mxCell>
        <mxCell id="SmAVnXv6OuDXm1kb2yZO-6" value="" style="endArrow=classic;html=1;rounded=0;exitX=0;exitY=0.5;exitDx=0;exitDy=0;" edge="1" parent="SmAVnXv6OuDXm1kb2yZO-2">
          <mxGeometry width="50" height="50" relative="1" as="geometry">
            <mxPoint x="385" y="70" as="sourcePoint" />
            <mxPoint x="330" y="150" as="targetPoint" />
            <Array as="points">
              <mxPoint x="330" y="70" />
            </Array>
          </mxGeometry>
        </mxCell>
        <mxCell id="SmAVnXv6OuDXm1kb2yZO-43" style="edgeStyle=orthogonalEdgeStyle;rounded=0;orthogonalLoop=1;jettySize=auto;html=1;entryX=0.5;entryY=0;entryDx=0;entryDy=0;" edge="1" parent="SmAVnXv6OuDXm1kb2yZO-2" source="SmAVnXv6OuDXm1kb2yZO-8" target="SmAVnXv6OuDXm1kb2yZO-42">
          <mxGeometry relative="1" as="geometry" />
        </mxCell>
        <mxCell id="SmAVnXv6OuDXm1kb2yZO-8" value="list" style="ellipse;shape=doubleEllipse;margin=3;whiteSpace=wrap;html=1;align=center;" vertex="1" parent="SmAVnXv6OuDXm1kb2yZO-2">
          <mxGeometry x="60" y="150" width="100" height="40" as="geometry" />
        </mxCell>
        <mxCell id="SmAVnXv6OuDXm1kb2yZO-41" style="edgeStyle=orthogonalEdgeStyle;rounded=0;orthogonalLoop=1;jettySize=auto;html=1;" edge="1" parent="SmAVnXv6OuDXm1kb2yZO-2" source="SmAVnXv6OuDXm1kb2yZO-9" target="SmAVnXv6OuDXm1kb2yZO-8">
          <mxGeometry relative="1" as="geometry" />
        </mxCell>
        <mxCell id="SmAVnXv6OuDXm1kb2yZO-9" value="search by 日" style="ellipse;shape=doubleEllipse;margin=3;whiteSpace=wrap;html=1;align=center;" vertex="1" parent="SmAVnXv6OuDXm1kb2yZO-2">
          <mxGeometry x="280" y="150" width="100" height="40" as="geometry" />
        </mxCell>
        <mxCell id="SmAVnXv6OuDXm1kb2yZO-50" style="edgeStyle=orthogonalEdgeStyle;rounded=0;orthogonalLoop=1;jettySize=auto;html=1;entryX=0.5;entryY=0;entryDx=0;entryDy=0;" edge="1" parent="SmAVnXv6OuDXm1kb2yZO-2" source="SmAVnXv6OuDXm1kb2yZO-10" target="SmAVnXv6OuDXm1kb2yZO-8">
          <mxGeometry relative="1" as="geometry">
            <Array as="points">
              <mxPoint x="769" y="130" />
              <mxPoint x="110" y="130" />
            </Array>
          </mxGeometry>
        </mxCell>
        <mxCell id="SmAVnXv6OuDXm1kb2yZO-10" value="hide" style="ellipse;shape=doubleEllipse;margin=3;whiteSpace=wrap;html=1;align=center;" vertex="1" parent="SmAVnXv6OuDXm1kb2yZO-2">
          <mxGeometry x="670" y="140" width="100" height="40" as="geometry" />
        </mxCell>
        <mxCell id="SmAVnXv6OuDXm1kb2yZO-49" style="edgeStyle=orthogonalEdgeStyle;rounded=0;orthogonalLoop=1;jettySize=auto;html=1;entryX=1;entryY=0.5;entryDx=0;entryDy=0;" edge="1" parent="SmAVnXv6OuDXm1kb2yZO-2" source="SmAVnXv6OuDXm1kb2yZO-11" target="SmAVnXv6OuDXm1kb2yZO-45">
          <mxGeometry relative="1" as="geometry">
            <Array as="points">
              <mxPoint x="965" y="400" />
            </Array>
          </mxGeometry>
        </mxCell>
        <mxCell id="SmAVnXv6OuDXm1kb2yZO-11" value="update" style="ellipse;shape=doubleEllipse;margin=3;whiteSpace=wrap;html=1;align=center;" vertex="1" parent="SmAVnXv6OuDXm1kb2yZO-2">
          <mxGeometry x="915" y="140" width="100" height="40" as="geometry" />
        </mxCell>
        <mxCell id="SmAVnXv6OuDXm1kb2yZO-47" style="edgeStyle=orthogonalEdgeStyle;rounded=0;orthogonalLoop=1;jettySize=auto;html=1;entryX=0;entryY=0.5;entryDx=0;entryDy=0;" edge="1" parent="SmAVnXv6OuDXm1kb2yZO-2" source="SmAVnXv6OuDXm1kb2yZO-42" target="SmAVnXv6OuDXm1kb2yZO-10">
          <mxGeometry relative="1" as="geometry" />
        </mxCell>
        <mxCell id="SmAVnXv6OuDXm1kb2yZO-48" style="edgeStyle=orthogonalEdgeStyle;rounded=0;orthogonalLoop=1;jettySize=auto;html=1;entryX=0;entryY=0.5;entryDx=0;entryDy=0;" edge="1" parent="SmAVnXv6OuDXm1kb2yZO-2" source="SmAVnXv6OuDXm1kb2yZO-42" target="SmAVnXv6OuDXm1kb2yZO-11">
          <mxGeometry relative="1" as="geometry">
            <Array as="points">
              <mxPoint x="799" y="260" />
              <mxPoint x="799" y="160" />
            </Array>
          </mxGeometry>
        </mxCell>
        <mxCell id="SmAVnXv6OuDXm1kb2yZO-42" value="Date write" style="ellipse;whiteSpace=wrap;html=1;align=center;dashed=1;" vertex="1" parent="SmAVnXv6OuDXm1kb2yZO-2">
          <mxGeometry x="60" y="240" width="100" height="40" as="geometry" />
        </mxCell>
        <mxCell id="SmAVnXv6OuDXm1kb2yZO-52" value="" style="edgeStyle=orthogonalEdgeStyle;rounded=0;orthogonalLoop=1;jettySize=auto;html=1;" edge="1" parent="SmAVnXv6OuDXm1kb2yZO-2" source="SmAVnXv6OuDXm1kb2yZO-45" target="SmAVnXv6OuDXm1kb2yZO-51">
          <mxGeometry relative="1" as="geometry" />
        </mxCell>
        <mxCell id="SmAVnXv6OuDXm1kb2yZO-45" value="Detail 日記" style="ellipse;whiteSpace=wrap;html=1;align=center;" vertex="1" parent="SmAVnXv6OuDXm1kb2yZO-2">
          <mxGeometry x="490" y="380" width="100" height="40" as="geometry" />
        </mxCell>
        <mxCell id="SmAVnXv6OuDXm1kb2yZO-53" style="edgeStyle=orthogonalEdgeStyle;rounded=0;orthogonalLoop=1;jettySize=auto;html=1;entryX=0.5;entryY=0;entryDx=0;entryDy=0;" edge="1" parent="SmAVnXv6OuDXm1kb2yZO-2" source="SmAVnXv6OuDXm1kb2yZO-51" target="SmAVnXv6OuDXm1kb2yZO-8">
          <mxGeometry relative="1" as="geometry" />
        </mxCell>
        <mxCell id="SmAVnXv6OuDXm1kb2yZO-51" value="submit" style="ellipse;whiteSpace=wrap;html=1;align=center;dashed=1;dashPattern=8 8;" vertex="1" parent="SmAVnXv6OuDXm1kb2yZO-2">
          <mxGeometry x="310" y="380" width="100" height="40" as="geometry" />
        </mxCell>
        <mxCell id="SmAVnXv6OuDXm1kb2yZO-38" value="" style="group" vertex="1" connectable="0" parent="SmAVnXv6OuDXm1kb2yZO-1">
          <mxGeometry y="90" width="140" height="60" as="geometry" />
        </mxCell>
        <mxCell id="SmAVnXv6OuDXm1kb2yZO-39" style="edgeStyle=orthogonalEdgeStyle;rounded=0;orthogonalLoop=1;jettySize=auto;html=1;" edge="1" parent="SmAVnXv6OuDXm1kb2yZO-38" source="SmAVnXv6OuDXm1kb2yZO-40">
          <mxGeometry relative="1" as="geometry">
            <mxPoint x="140" y="30" as="targetPoint" />
          </mxGeometry>
        </mxCell>
        <mxCell id="SmAVnXv6OuDXm1kb2yZO-40" value="User" style="shape=umlActor;verticalLabelPosition=bottom;verticalAlign=top;html=1;outlineConnect=0;" vertex="1" parent="SmAVnXv6OuDXm1kb2yZO-38">
          <mxGeometry width="38.18181818181818" height="60" as="geometry" />
        </mxCell>
      </root>
    </mxGraphModel>
  </diagram>
  <diagram id="y6zkgN8NSeAAA7__SrSr" name="メモ">
    <mxGraphModel dx="2120" dy="1371" grid="1" gridSize="10" guides="1" tooltips="1" connect="1" arrows="1" fold="1" page="0" pageScale="1" pageWidth="827" pageHeight="1169" math="0" shadow="0">
      <root>
        <mxCell id="0" />
        <mxCell id="1" parent="0" />
        <mxCell id="AYwN4KwiAt8QhG0ADfNl-1" value="" style="group" vertex="1" connectable="0" parent="1">
          <mxGeometry x="11" y="30" width="1440" height="970" as="geometry" />
        </mxCell>
        <mxCell id="AYwN4KwiAt8QhG0ADfNl-2" value="Tool メモ" style="swimlane;whiteSpace=wrap;html=1;" vertex="1" parent="AYwN4KwiAt8QhG0ADfNl-1">
          <mxGeometry x="156.95986707328333" y="-30" width="1283.0389134155546" height="969.9999999999999" as="geometry" />
        </mxCell>
        <mxCell id="AYwN4KwiAt8QhG0ADfNl-25" style="edgeStyle=orthogonalEdgeStyle;rounded=0;orthogonalLoop=1;jettySize=auto;html=1;entryX=0.5;entryY=0;entryDx=0;entryDy=0;" edge="1" parent="AYwN4KwiAt8QhG0ADfNl-2" source="AYwN4KwiAt8QhG0ADfNl-4" target="AYwN4KwiAt8QhG0ADfNl-9">
          <mxGeometry relative="1" as="geometry" />
        </mxCell>
        <mxCell id="AYwN4KwiAt8QhG0ADfNl-26" style="edgeStyle=orthogonalEdgeStyle;rounded=0;orthogonalLoop=1;jettySize=auto;html=1;entryX=0.5;entryY=0;entryDx=0;entryDy=0;" edge="1" parent="AYwN4KwiAt8QhG0ADfNl-2" source="AYwN4KwiAt8QhG0ADfNl-4" target="AYwN4KwiAt8QhG0ADfNl-7">
          <mxGeometry relative="1" as="geometry" />
        </mxCell>
        <mxCell id="AYwN4KwiAt8QhG0ADfNl-27" style="edgeStyle=orthogonalEdgeStyle;rounded=0;orthogonalLoop=1;jettySize=auto;html=1;entryX=0.5;entryY=0;entryDx=0;entryDy=0;" edge="1" parent="AYwN4KwiAt8QhG0ADfNl-2" source="AYwN4KwiAt8QhG0ADfNl-4" target="AYwN4KwiAt8QhG0ADfNl-11">
          <mxGeometry relative="1" as="geometry" />
        </mxCell>
        <mxCell id="AYwN4KwiAt8QhG0ADfNl-4" value="Tools&lt;br&gt;メモ" style="rounded=1;arcSize=10;whiteSpace=wrap;html=1;align=center;" vertex="1" parent="AYwN4KwiAt8QhG0ADfNl-2">
          <mxGeometry x="549.3572583356554" y="60.62499999999999" width="112.11372619095006" height="48.5" as="geometry" />
        </mxCell>
        <mxCell id="AYwN4KwiAt8QhG0ADfNl-40" style="edgeStyle=orthogonalEdgeStyle;rounded=0;orthogonalLoop=1;jettySize=auto;html=1;" edge="1" parent="AYwN4KwiAt8QhG0ADfNl-2" source="AYwN4KwiAt8QhG0ADfNl-7" target="AYwN4KwiAt8QhG0ADfNl-30">
          <mxGeometry relative="1" as="geometry" />
        </mxCell>
        <mxCell id="AYwN4KwiAt8QhG0ADfNl-41" style="edgeStyle=orthogonalEdgeStyle;rounded=0;orthogonalLoop=1;jettySize=auto;html=1;entryX=0.5;entryY=0;entryDx=0;entryDy=0;" edge="1" parent="AYwN4KwiAt8QhG0ADfNl-2" source="AYwN4KwiAt8QhG0ADfNl-7" target="AYwN4KwiAt8QhG0ADfNl-31">
          <mxGeometry relative="1" as="geometry" />
        </mxCell>
        <mxCell id="AYwN4KwiAt8QhG0ADfNl-7" value="借金" style="ellipse;shape=doubleEllipse;margin=3;whiteSpace=wrap;html=1;align=center;" vertex="1" parent="AYwN4KwiAt8QhG0ADfNl-2">
          <mxGeometry x="123.32509881004506" y="194" width="112.11372619095006" height="48.5" as="geometry" />
        </mxCell>
        <mxCell id="AYwN4KwiAt8QhG0ADfNl-52" style="edgeStyle=orthogonalEdgeStyle;rounded=0;orthogonalLoop=1;jettySize=auto;html=1;entryX=0.5;entryY=0;entryDx=0;entryDy=0;" edge="1" parent="AYwN4KwiAt8QhG0ADfNl-2" source="AYwN4KwiAt8QhG0ADfNl-9" target="AYwN4KwiAt8QhG0ADfNl-51">
          <mxGeometry relative="1" as="geometry" />
        </mxCell>
        <mxCell id="AYwN4KwiAt8QhG0ADfNl-53" style="edgeStyle=orthogonalEdgeStyle;rounded=0;orthogonalLoop=1;jettySize=auto;html=1;entryX=0.5;entryY=0;entryDx=0;entryDy=0;" edge="1" parent="AYwN4KwiAt8QhG0ADfNl-2" source="AYwN4KwiAt8QhG0ADfNl-9" target="AYwN4KwiAt8QhG0ADfNl-50">
          <mxGeometry relative="1" as="geometry" />
        </mxCell>
        <mxCell id="AYwN4KwiAt8QhG0ADfNl-9" value="仕事" style="ellipse;shape=doubleEllipse;margin=3;whiteSpace=wrap;html=1;align=center;" vertex="1" parent="AYwN4KwiAt8QhG0ADfNl-2">
          <mxGeometry x="549.3572583356554" y="194" width="112.11372619095006" height="48.5" as="geometry" />
        </mxCell>
        <mxCell id="AYwN4KwiAt8QhG0ADfNl-63" style="edgeStyle=orthogonalEdgeStyle;rounded=0;orthogonalLoop=1;jettySize=auto;html=1;entryX=0.5;entryY=0;entryDx=0;entryDy=0;" edge="1" parent="AYwN4KwiAt8QhG0ADfNl-2" source="AYwN4KwiAt8QhG0ADfNl-11" target="AYwN4KwiAt8QhG0ADfNl-62">
          <mxGeometry relative="1" as="geometry" />
        </mxCell>
        <mxCell id="AYwN4KwiAt8QhG0ADfNl-11" value="Important" style="ellipse;shape=doubleEllipse;margin=3;whiteSpace=wrap;html=1;align=center;" vertex="1" parent="AYwN4KwiAt8QhG0ADfNl-2">
          <mxGeometry x="986.6007904803605" y="194" width="112.11372619095006" height="48.5" as="geometry" />
        </mxCell>
        <mxCell id="AYwN4KwiAt8QhG0ADfNl-38" style="edgeStyle=orthogonalEdgeStyle;rounded=0;orthogonalLoop=1;jettySize=auto;html=1;entryX=0.5;entryY=0;entryDx=0;entryDy=0;exitX=0.5;exitY=1;exitDx=0;exitDy=0;" edge="1" parent="AYwN4KwiAt8QhG0ADfNl-2" source="AYwN4KwiAt8QhG0ADfNl-30" target="AYwN4KwiAt8QhG0ADfNl-32">
          <mxGeometry relative="1" as="geometry">
            <mxPoint x="89.6909809527598" y="448.62499999999994" as="sourcePoint" />
          </mxGeometry>
        </mxCell>
        <mxCell id="AYwN4KwiAt8QhG0ADfNl-30" value="by month" style="ellipse;whiteSpace=wrap;html=1;align=center;dashed=1;" vertex="1" parent="AYwN4KwiAt8QhG0ADfNl-2">
          <mxGeometry x="33.63411785728502" y="315.25" width="112.11372619095006" height="48.5" as="geometry" />
        </mxCell>
        <mxCell id="AYwN4KwiAt8QhG0ADfNl-47" style="edgeStyle=orthogonalEdgeStyle;rounded=0;orthogonalLoop=1;jettySize=auto;html=1;entryX=1;entryY=0.5;entryDx=0;entryDy=0;" edge="1" parent="AYwN4KwiAt8QhG0ADfNl-2" source="AYwN4KwiAt8QhG0ADfNl-31" target="AYwN4KwiAt8QhG0ADfNl-30">
          <mxGeometry relative="1" as="geometry" />
        </mxCell>
        <mxCell id="AYwN4KwiAt8QhG0ADfNl-31" value="by year" style="ellipse;whiteSpace=wrap;html=1;align=center;dashed=1;" vertex="1" parent="AYwN4KwiAt8QhG0ADfNl-2">
          <mxGeometry x="213.0160797628051" y="315.25" width="112.11372619095006" height="48.5" as="geometry" />
        </mxCell>
        <mxCell id="AYwN4KwiAt8QhG0ADfNl-44" style="edgeStyle=orthogonalEdgeStyle;rounded=0;orthogonalLoop=1;jettySize=auto;html=1;entryX=0.63;entryY=0.063;entryDx=0;entryDy=0;entryPerimeter=0;" edge="1" parent="AYwN4KwiAt8QhG0ADfNl-2" source="AYwN4KwiAt8QhG0ADfNl-32" target="AYwN4KwiAt8QhG0ADfNl-42">
          <mxGeometry relative="1" as="geometry" />
        </mxCell>
        <mxCell id="AYwN4KwiAt8QhG0ADfNl-157" style="edgeStyle=orthogonalEdgeStyle;rounded=0;orthogonalLoop=1;jettySize=auto;html=1;entryX=0.5;entryY=0;entryDx=0;entryDy=0;dashed=1;" edge="1" parent="AYwN4KwiAt8QhG0ADfNl-2" source="AYwN4KwiAt8QhG0ADfNl-32" target="AYwN4KwiAt8QhG0ADfNl-43">
          <mxGeometry relative="1" as="geometry" />
        </mxCell>
        <mxCell id="AYwN4KwiAt8QhG0ADfNl-32" value="list" style="ellipse;whiteSpace=wrap;html=1;align=center;" vertex="1" parent="AYwN4KwiAt8QhG0ADfNl-2">
          <mxGeometry x="124.44623607195457" y="545.625" width="112.11372619095006" height="48.5" as="geometry" />
        </mxCell>
        <mxCell id="AYwN4KwiAt8QhG0ADfNl-149" style="edgeStyle=orthogonalEdgeStyle;rounded=0;orthogonalLoop=1;jettySize=auto;html=1;entryX=0.5;entryY=0;entryDx=0;entryDy=0;" edge="1" parent="AYwN4KwiAt8QhG0ADfNl-2" source="AYwN4KwiAt8QhG0ADfNl-42" target="AYwN4KwiAt8QhG0ADfNl-147">
          <mxGeometry relative="1" as="geometry" />
        </mxCell>
        <mxCell id="AYwN4KwiAt8QhG0ADfNl-153" style="edgeStyle=orthogonalEdgeStyle;rounded=0;orthogonalLoop=1;jettySize=auto;html=1;entryX=0;entryY=0.5;entryDx=0;entryDy=0;" edge="1" parent="AYwN4KwiAt8QhG0ADfNl-2" source="AYwN4KwiAt8QhG0ADfNl-42" target="AYwN4KwiAt8QhG0ADfNl-43">
          <mxGeometry relative="1" as="geometry" />
        </mxCell>
        <mxCell id="AYwN4KwiAt8QhG0ADfNl-42" value="detail" style="ellipse;whiteSpace=wrap;html=1;align=center;" vertex="1" parent="AYwN4KwiAt8QhG0ADfNl-2">
          <mxGeometry x="32.512980595375524" y="666.875" width="112.11372619095006" height="48.5" as="geometry" />
        </mxCell>
        <mxCell id="AYwN4KwiAt8QhG0ADfNl-43" value="done" style="ellipse;whiteSpace=wrap;html=1;align=center;" vertex="1" parent="AYwN4KwiAt8QhG0ADfNl-2">
          <mxGeometry x="213.0160797628051" y="666.875" width="112.11372619095006" height="48.5" as="geometry" />
        </mxCell>
        <mxCell id="AYwN4KwiAt8QhG0ADfNl-55" style="edgeStyle=orthogonalEdgeStyle;rounded=0;orthogonalLoop=1;jettySize=auto;html=1;entryX=0.5;entryY=0;entryDx=0;entryDy=0;" edge="1" parent="AYwN4KwiAt8QhG0ADfNl-2" source="AYwN4KwiAt8QhG0ADfNl-50" target="AYwN4KwiAt8QhG0ADfNl-54">
          <mxGeometry relative="1" as="geometry" />
        </mxCell>
        <mxCell id="AYwN4KwiAt8QhG0ADfNl-50" value="by 月" style="ellipse;whiteSpace=wrap;html=1;align=center;dashed=1;" vertex="1" parent="AYwN4KwiAt8QhG0ADfNl-2">
          <mxGeometry x="627.8368666693203" y="315.25" width="112.11372619095006" height="48.5" as="geometry" />
        </mxCell>
        <mxCell id="AYwN4KwiAt8QhG0ADfNl-57" style="edgeStyle=orthogonalEdgeStyle;rounded=0;orthogonalLoop=1;jettySize=auto;html=1;entryX=0.5;entryY=0;entryDx=0;entryDy=0;" edge="1" parent="AYwN4KwiAt8QhG0ADfNl-2" source="AYwN4KwiAt8QhG0ADfNl-51" target="AYwN4KwiAt8QhG0ADfNl-54">
          <mxGeometry relative="1" as="geometry" />
        </mxCell>
        <mxCell id="AYwN4KwiAt8QhG0ADfNl-51" value="by 週" style="ellipse;whiteSpace=wrap;html=1;align=center;dashed=1;" vertex="1" parent="AYwN4KwiAt8QhG0ADfNl-2">
          <mxGeometry x="470.8776500019903" y="315.25" width="112.11372619095006" height="48.5" as="geometry" />
        </mxCell>
        <mxCell id="AYwN4KwiAt8QhG0ADfNl-60" style="edgeStyle=orthogonalEdgeStyle;rounded=0;orthogonalLoop=1;jettySize=auto;html=1;entryX=0.5;entryY=0;entryDx=0;entryDy=0;" edge="1" parent="AYwN4KwiAt8QhG0ADfNl-2" source="AYwN4KwiAt8QhG0ADfNl-54" target="AYwN4KwiAt8QhG0ADfNl-58">
          <mxGeometry relative="1" as="geometry" />
        </mxCell>
        <mxCell id="AYwN4KwiAt8QhG0ADfNl-61" style="edgeStyle=orthogonalEdgeStyle;rounded=0;orthogonalLoop=1;jettySize=auto;html=1;dashed=1;" edge="1" parent="AYwN4KwiAt8QhG0ADfNl-2" source="AYwN4KwiAt8QhG0ADfNl-54" target="AYwN4KwiAt8QhG0ADfNl-59">
          <mxGeometry relative="1" as="geometry" />
        </mxCell>
        <mxCell id="AYwN4KwiAt8QhG0ADfNl-145" style="edgeStyle=orthogonalEdgeStyle;rounded=0;orthogonalLoop=1;jettySize=auto;html=1;entryX=0.5;entryY=0;entryDx=0;entryDy=0;" edge="1" parent="AYwN4KwiAt8QhG0ADfNl-2" source="AYwN4KwiAt8QhG0ADfNl-54" target="AYwN4KwiAt8QhG0ADfNl-144">
          <mxGeometry relative="1" as="geometry" />
        </mxCell>
        <mxCell id="AYwN4KwiAt8QhG0ADfNl-54" value="list plan" style="ellipse;whiteSpace=wrap;html=1;align=center;" vertex="1" parent="AYwN4KwiAt8QhG0ADfNl-2">
          <mxGeometry x="554.9629446452029" y="436.49999999999994" width="112.11372619095006" height="48.5" as="geometry" />
        </mxCell>
        <mxCell id="AYwN4KwiAt8QhG0ADfNl-58" value="detail" style="ellipse;whiteSpace=wrap;html=1;align=center;" vertex="1" parent="AYwN4KwiAt8QhG0ADfNl-2">
          <mxGeometry x="464.711395061488" y="582" width="112.11372619095006" height="48.5" as="geometry" />
        </mxCell>
        <mxCell id="AYwN4KwiAt8QhG0ADfNl-59" value="done" style="ellipse;whiteSpace=wrap;html=1;align=center;" vertex="1" parent="AYwN4KwiAt8QhG0ADfNl-2">
          <mxGeometry x="645.2144942289177" y="582" width="112.11372619095006" height="48.5" as="geometry" />
        </mxCell>
        <mxCell id="AYwN4KwiAt8QhG0ADfNl-136" style="edgeStyle=orthogonalEdgeStyle;rounded=0;orthogonalLoop=1;jettySize=auto;html=1;entryX=0.5;entryY=0;entryDx=0;entryDy=0;" edge="1" parent="AYwN4KwiAt8QhG0ADfNl-2" source="AYwN4KwiAt8QhG0ADfNl-62" target="AYwN4KwiAt8QhG0ADfNl-65">
          <mxGeometry relative="1" as="geometry" />
        </mxCell>
        <mxCell id="AYwN4KwiAt8QhG0ADfNl-138" style="edgeStyle=orthogonalEdgeStyle;rounded=0;orthogonalLoop=1;jettySize=auto;html=1;entryX=0.5;entryY=0;entryDx=0;entryDy=0;" edge="1" parent="AYwN4KwiAt8QhG0ADfNl-2" source="AYwN4KwiAt8QhG0ADfNl-62" target="AYwN4KwiAt8QhG0ADfNl-66">
          <mxGeometry relative="1" as="geometry" />
        </mxCell>
        <mxCell id="AYwN4KwiAt8QhG0ADfNl-156" style="edgeStyle=orthogonalEdgeStyle;rounded=0;orthogonalLoop=1;jettySize=auto;html=1;entryX=0.5;entryY=0;entryDx=0;entryDy=0;dashed=1;dashPattern=8 8;" edge="1" parent="AYwN4KwiAt8QhG0ADfNl-2" source="AYwN4KwiAt8QhG0ADfNl-62" target="AYwN4KwiAt8QhG0ADfNl-135">
          <mxGeometry relative="1" as="geometry" />
        </mxCell>
        <mxCell id="AYwN4KwiAt8QhG0ADfNl-62" value="list" style="ellipse;whiteSpace=wrap;html=1;align=center;" vertex="1" parent="AYwN4KwiAt8QhG0ADfNl-2">
          <mxGeometry x="986.6007904803605" y="315.25" width="112.11372619095006" height="48.5" as="geometry" />
        </mxCell>
        <mxCell id="AYwN4KwiAt8QhG0ADfNl-142" style="edgeStyle=orthogonalEdgeStyle;rounded=0;orthogonalLoop=1;jettySize=auto;html=1;" edge="1" parent="AYwN4KwiAt8QhG0ADfNl-2" source="AYwN4KwiAt8QhG0ADfNl-66" target="AYwN4KwiAt8QhG0ADfNl-140">
          <mxGeometry relative="1" as="geometry" />
        </mxCell>
        <mxCell id="AYwN4KwiAt8QhG0ADfNl-66" value="not complete" style="ellipse;whiteSpace=wrap;html=1;align=center;" vertex="1" parent="AYwN4KwiAt8QhG0ADfNl-2">
          <mxGeometry x="986.0365633159188" y="436.49999999999994" width="112.11372619095006" height="48.5" as="geometry" />
        </mxCell>
        <mxCell id="AYwN4KwiAt8QhG0ADfNl-155" style="edgeStyle=orthogonalEdgeStyle;rounded=0;orthogonalLoop=1;jettySize=auto;html=1;entryX=0.5;entryY=0;entryDx=0;entryDy=0;exitX=0;exitY=0.5;exitDx=0;exitDy=0;" edge="1" parent="AYwN4KwiAt8QhG0ADfNl-2" source="AYwN4KwiAt8QhG0ADfNl-65" target="AYwN4KwiAt8QhG0ADfNl-135">
          <mxGeometry relative="1" as="geometry">
            <Array as="points">
              <mxPoint x="852" y="417" />
              <mxPoint x="1197" y="417" />
            </Array>
          </mxGeometry>
        </mxCell>
        <mxCell id="AYwN4KwiAt8QhG0ADfNl-65" value="detail" style="ellipse;whiteSpace=wrap;html=1;align=center;" vertex="1" parent="AYwN4KwiAt8QhG0ADfNl-2">
          <mxGeometry x="852.0399288279738" y="436.49999999999994" width="99.99991531172486" height="48.5" as="geometry" />
        </mxCell>
        <mxCell id="AYwN4KwiAt8QhG0ADfNl-135" value="done" style="ellipse;whiteSpace=wrap;html=1;align=center;" vertex="1" parent="AYwN4KwiAt8QhG0ADfNl-2">
          <mxGeometry x="1140.9264321422493" y="436.49999999999994" width="112.11372619095006" height="48.5" as="geometry" />
        </mxCell>
        <mxCell id="AYwN4KwiAt8QhG0ADfNl-143" style="edgeStyle=orthogonalEdgeStyle;rounded=0;orthogonalLoop=1;jettySize=auto;html=1;entryX=0.5;entryY=0;entryDx=0;entryDy=0;entryPerimeter=0;" edge="1" parent="AYwN4KwiAt8QhG0ADfNl-2" source="AYwN4KwiAt8QhG0ADfNl-140" target="AYwN4KwiAt8QhG0ADfNl-141">
          <mxGeometry relative="1" as="geometry" />
        </mxCell>
        <mxCell id="AYwN4KwiAt8QhG0ADfNl-140" value="notify" style="ellipse;whiteSpace=wrap;html=1;align=center;dashed=1;" vertex="1" parent="AYwN4KwiAt8QhG0ADfNl-2">
          <mxGeometry x="992.6591593333678" y="557.75" width="99.99991531172486" height="48.5" as="geometry" />
        </mxCell>
        <mxCell id="AYwN4KwiAt8QhG0ADfNl-141" value="Home page" style="shape=note;size=20;whiteSpace=wrap;html=1;" vertex="1" parent="AYwN4KwiAt8QhG0ADfNl-2">
          <mxGeometry x="992.0891598160913" y="679" width="99.99991531172486" height="121.24999999999999" as="geometry" />
        </mxCell>
        <mxCell id="AYwN4KwiAt8QhG0ADfNl-146" style="edgeStyle=orthogonalEdgeStyle;rounded=0;orthogonalLoop=1;jettySize=auto;html=1;entryX=0;entryY=0.5;entryDx=0;entryDy=0;" edge="1" parent="AYwN4KwiAt8QhG0ADfNl-2" source="AYwN4KwiAt8QhG0ADfNl-144" target="AYwN4KwiAt8QhG0ADfNl-11">
          <mxGeometry relative="1" as="geometry" />
        </mxCell>
        <mxCell id="AYwN4KwiAt8QhG0ADfNl-144" value="change important" style="ellipse;whiteSpace=wrap;html=1;align=center;" vertex="1" parent="AYwN4KwiAt8QhG0ADfNl-2">
          <mxGeometry x="554.3545711766844" y="666.875" width="112.11372619095006" height="48.5" as="geometry" />
        </mxCell>
        <mxCell id="AYwN4KwiAt8QhG0ADfNl-151" style="edgeStyle=orthogonalEdgeStyle;rounded=0;orthogonalLoop=1;jettySize=auto;html=1;entryX=0.16;entryY=0.55;entryDx=0;entryDy=0;entryPerimeter=0;" edge="1" parent="AYwN4KwiAt8QhG0ADfNl-2" source="AYwN4KwiAt8QhG0ADfNl-147" target="AYwN4KwiAt8QhG0ADfNl-148">
          <mxGeometry relative="1" as="geometry">
            <Array as="points">
              <mxPoint x="89" y="890" />
              <mxPoint x="145" y="890" />
            </Array>
          </mxGeometry>
        </mxCell>
        <mxCell id="AYwN4KwiAt8QhG0ADfNl-147" value="QR" style="ellipse;whiteSpace=wrap;html=1;align=center;" vertex="1" parent="AYwN4KwiAt8QhG0ADfNl-2">
          <mxGeometry x="32.51298059537554" y="769.9999999999999" width="112.11372619095006" height="48.5" as="geometry" />
        </mxCell>
        <mxCell id="AYwN4KwiAt8QhG0ADfNl-152" style="edgeStyle=orthogonalEdgeStyle;rounded=0;orthogonalLoop=1;jettySize=auto;html=1;" edge="1" parent="AYwN4KwiAt8QhG0ADfNl-2" source="AYwN4KwiAt8QhG0ADfNl-148">
          <mxGeometry relative="1" as="geometry">
            <mxPoint x="272.04013292671664" y="720.0000000000002" as="targetPoint" />
          </mxGeometry>
        </mxCell>
        <mxCell id="AYwN4KwiAt8QhG0ADfNl-148" value="api bank" style="ellipse;shape=cloud;whiteSpace=wrap;html=1;" vertex="1" parent="AYwN4KwiAt8QhG0ADfNl-2">
          <mxGeometry x="126.04013292671667" y="850" width="120" height="80" as="geometry" />
        </mxCell>
        <mxCell id="AYwN4KwiAt8QhG0ADfNl-21" value="" style="group" vertex="1" connectable="0" parent="AYwN4KwiAt8QhG0ADfNl-1">
          <mxGeometry y="109.12499999999999" width="156.95921666733005" height="72.75" as="geometry" />
        </mxCell>
        <mxCell id="AYwN4KwiAt8QhG0ADfNl-22" style="edgeStyle=orthogonalEdgeStyle;rounded=0;orthogonalLoop=1;jettySize=auto;html=1;" edge="1" parent="AYwN4KwiAt8QhG0ADfNl-21" source="AYwN4KwiAt8QhG0ADfNl-23">
          <mxGeometry relative="1" as="geometry">
            <mxPoint x="156.95921666733005" y="36.375" as="targetPoint" />
          </mxGeometry>
        </mxCell>
        <mxCell id="AYwN4KwiAt8QhG0ADfNl-23" value="User" style="shape=umlActor;verticalLabelPosition=bottom;verticalAlign=top;html=1;outlineConnect=0;" vertex="1" parent="AYwN4KwiAt8QhG0ADfNl-21">
          <mxGeometry width="42.80705909109002" height="72.75" as="geometry" />
        </mxCell>
      </root>
    </mxGraphModel>
  </diagram>
  <diagram id="Sf3i1OAE77v8e5n1KR9n" name="ストレージ">
    <mxGraphModel dx="1735" dy="1122" grid="1" gridSize="10" guides="1" tooltips="1" connect="1" arrows="1" fold="1" page="1" pageScale="1" pageWidth="827" pageHeight="1169" math="0" shadow="0">
      <root>
        <mxCell id="0" />
        <mxCell id="1" parent="0" />
        <mxCell id="gEnsQ35gh-dWNM30f2tS-1" value="" style="group" vertex="1" connectable="0" parent="1">
          <mxGeometry x="240" y="70" width="1440" height="970" as="geometry" />
        </mxCell>
        <mxCell id="gEnsQ35gh-dWNM30f2tS-2" value="Tool ストレージ" style="swimlane;whiteSpace=wrap;html=1;" vertex="1" parent="gEnsQ35gh-dWNM30f2tS-1">
          <mxGeometry x="156.96" y="-30" width="1283.04" height="760" as="geometry" />
        </mxCell>
        <mxCell id="gEnsQ35gh-dWNM30f2tS-3" style="edgeStyle=orthogonalEdgeStyle;rounded=0;orthogonalLoop=1;jettySize=auto;html=1;entryX=0.5;entryY=0;entryDx=0;entryDy=0;" edge="1" parent="gEnsQ35gh-dWNM30f2tS-2" source="gEnsQ35gh-dWNM30f2tS-6" target="gEnsQ35gh-dWNM30f2tS-12">
          <mxGeometry relative="1" as="geometry" />
        </mxCell>
        <mxCell id="gEnsQ35gh-dWNM30f2tS-4" style="edgeStyle=orthogonalEdgeStyle;rounded=0;orthogonalLoop=1;jettySize=auto;html=1;entryX=0.5;entryY=0;entryDx=0;entryDy=0;" edge="1" parent="gEnsQ35gh-dWNM30f2tS-2" source="gEnsQ35gh-dWNM30f2tS-6" target="gEnsQ35gh-dWNM30f2tS-9">
          <mxGeometry relative="1" as="geometry" />
        </mxCell>
        <mxCell id="gEnsQ35gh-dWNM30f2tS-5" style="edgeStyle=orthogonalEdgeStyle;rounded=0;orthogonalLoop=1;jettySize=auto;html=1;entryX=0.5;entryY=0;entryDx=0;entryDy=0;" edge="1" parent="gEnsQ35gh-dWNM30f2tS-2" source="gEnsQ35gh-dWNM30f2tS-6" target="gEnsQ35gh-dWNM30f2tS-14">
          <mxGeometry relative="1" as="geometry" />
        </mxCell>
        <mxCell id="gEnsQ35gh-dWNM30f2tS-6" value="Tools&lt;br&gt;ストレージ" style="rounded=1;arcSize=10;whiteSpace=wrap;html=1;align=center;" vertex="1" parent="gEnsQ35gh-dWNM30f2tS-2">
          <mxGeometry x="549.3572583356554" y="60.62499999999999" width="112.11372619095006" height="48.5" as="geometry" />
        </mxCell>
        <mxCell id="gEnsQ35gh-dWNM30f2tS-57" style="edgeStyle=orthogonalEdgeStyle;rounded=0;orthogonalLoop=1;jettySize=auto;html=1;entryX=0.5;entryY=0;entryDx=0;entryDy=0;" edge="1" parent="gEnsQ35gh-dWNM30f2tS-2" source="gEnsQ35gh-dWNM30f2tS-9" target="gEnsQ35gh-dWNM30f2tS-21">
          <mxGeometry relative="1" as="geometry" />
        </mxCell>
        <mxCell id="gEnsQ35gh-dWNM30f2tS-9" value="写真(じゃしん&lt;br&gt;)" style="ellipse;shape=doubleEllipse;margin=3;whiteSpace=wrap;html=1;align=center;" vertex="1" parent="gEnsQ35gh-dWNM30f2tS-2">
          <mxGeometry x="123.32509881004506" y="194" width="112.11372619095006" height="48.5" as="geometry" />
        </mxCell>
        <mxCell id="gEnsQ35gh-dWNM30f2tS-59" style="edgeStyle=orthogonalEdgeStyle;rounded=0;orthogonalLoop=1;jettySize=auto;html=1;" edge="1" parent="gEnsQ35gh-dWNM30f2tS-2" source="gEnsQ35gh-dWNM30f2tS-12" target="gEnsQ35gh-dWNM30f2tS-58">
          <mxGeometry relative="1" as="geometry" />
        </mxCell>
        <mxCell id="gEnsQ35gh-dWNM30f2tS-12" value="資料(しりょう)" style="ellipse;shape=doubleEllipse;margin=3;whiteSpace=wrap;html=1;align=center;" vertex="1" parent="gEnsQ35gh-dWNM30f2tS-2">
          <mxGeometry x="549.3572583356554" y="194" width="112.11372619095006" height="48.5" as="geometry" />
        </mxCell>
        <mxCell id="gEnsQ35gh-dWNM30f2tS-13" style="edgeStyle=orthogonalEdgeStyle;rounded=0;orthogonalLoop=1;jettySize=auto;html=1;entryX=0.5;entryY=0;entryDx=0;entryDy=0;" edge="1" parent="gEnsQ35gh-dWNM30f2tS-2" source="gEnsQ35gh-dWNM30f2tS-14" target="gEnsQ35gh-dWNM30f2tS-39">
          <mxGeometry relative="1" as="geometry" />
        </mxCell>
        <mxCell id="gEnsQ35gh-dWNM30f2tS-14" value="Other" style="ellipse;shape=doubleEllipse;margin=3;whiteSpace=wrap;html=1;align=center;" vertex="1" parent="gEnsQ35gh-dWNM30f2tS-2">
          <mxGeometry x="986.6007904803605" y="194" width="112.11372619095006" height="48.5" as="geometry" />
        </mxCell>
        <mxCell id="gEnsQ35gh-dWNM30f2tS-19" style="edgeStyle=orthogonalEdgeStyle;rounded=0;orthogonalLoop=1;jettySize=auto;html=1;entryX=0.63;entryY=0.063;entryDx=0;entryDy=0;entryPerimeter=0;" edge="1" parent="gEnsQ35gh-dWNM30f2tS-2" source="gEnsQ35gh-dWNM30f2tS-21" target="gEnsQ35gh-dWNM30f2tS-24">
          <mxGeometry relative="1" as="geometry" />
        </mxCell>
        <mxCell id="gEnsQ35gh-dWNM30f2tS-20" style="edgeStyle=orthogonalEdgeStyle;rounded=0;orthogonalLoop=1;jettySize=auto;html=1;entryX=0.5;entryY=0;entryDx=0;entryDy=0;" edge="1" parent="gEnsQ35gh-dWNM30f2tS-2" source="gEnsQ35gh-dWNM30f2tS-21" target="gEnsQ35gh-dWNM30f2tS-25">
          <mxGeometry relative="1" as="geometry" />
        </mxCell>
        <mxCell id="gEnsQ35gh-dWNM30f2tS-75" style="edgeStyle=orthogonalEdgeStyle;rounded=0;orthogonalLoop=1;jettySize=auto;html=1;entryX=0.5;entryY=0;entryDx=0;entryDy=0;" edge="1" parent="gEnsQ35gh-dWNM30f2tS-2" source="gEnsQ35gh-dWNM30f2tS-21" target="gEnsQ35gh-dWNM30f2tS-74">
          <mxGeometry relative="1" as="geometry" />
        </mxCell>
        <mxCell id="gEnsQ35gh-dWNM30f2tS-21" value="list" style="ellipse;whiteSpace=wrap;html=1;align=center;" vertex="1" parent="gEnsQ35gh-dWNM30f2tS-2">
          <mxGeometry x="124.00623607195458" y="315.255" width="112.11372619095006" height="48.5" as="geometry" />
        </mxCell>
        <mxCell id="gEnsQ35gh-dWNM30f2tS-24" value="zoom" style="ellipse;whiteSpace=wrap;html=1;align=center;" vertex="1" parent="gEnsQ35gh-dWNM30f2tS-2">
          <mxGeometry x="33.072980595375526" y="436.505" width="112.11372619095006" height="48.5" as="geometry" />
        </mxCell>
        <mxCell id="gEnsQ35gh-dWNM30f2tS-25" value="delete" style="ellipse;whiteSpace=wrap;html=1;align=center;" vertex="1" parent="gEnsQ35gh-dWNM30f2tS-2">
          <mxGeometry x="213.5760797628051" y="436.505" width="112.11372619095006" height="48.5" as="geometry" />
        </mxCell>
        <mxCell id="gEnsQ35gh-dWNM30f2tS-30" style="edgeStyle=orthogonalEdgeStyle;rounded=0;orthogonalLoop=1;jettySize=auto;html=1;entryX=0.5;entryY=0;entryDx=0;entryDy=0;" edge="1" parent="gEnsQ35gh-dWNM30f2tS-2" source="gEnsQ35gh-dWNM30f2tS-33" target="gEnsQ35gh-dWNM30f2tS-34">
          <mxGeometry relative="1" as="geometry" />
        </mxCell>
        <mxCell id="gEnsQ35gh-dWNM30f2tS-62" style="edgeStyle=orthogonalEdgeStyle;rounded=0;orthogonalLoop=1;jettySize=auto;html=1;entryX=0.5;entryY=0;entryDx=0;entryDy=0;" edge="1" parent="gEnsQ35gh-dWNM30f2tS-2" source="gEnsQ35gh-dWNM30f2tS-33" target="gEnsQ35gh-dWNM30f2tS-61">
          <mxGeometry relative="1" as="geometry" />
        </mxCell>
        <mxCell id="gEnsQ35gh-dWNM30f2tS-67" style="edgeStyle=orthogonalEdgeStyle;rounded=0;orthogonalLoop=1;jettySize=auto;html=1;entryX=0.5;entryY=0;entryDx=0;entryDy=0;" edge="1" parent="gEnsQ35gh-dWNM30f2tS-2" source="gEnsQ35gh-dWNM30f2tS-33" target="gEnsQ35gh-dWNM30f2tS-66">
          <mxGeometry relative="1" as="geometry" />
        </mxCell>
        <mxCell id="gEnsQ35gh-dWNM30f2tS-33" value="list" style="ellipse;whiteSpace=wrap;html=1;align=center;" vertex="1" parent="gEnsQ35gh-dWNM30f2tS-2">
          <mxGeometry x="549.3529446452029" y="400.12999999999994" width="112.11372619095006" height="48.5" as="geometry" />
        </mxCell>
        <mxCell id="gEnsQ35gh-dWNM30f2tS-64" style="edgeStyle=orthogonalEdgeStyle;rounded=0;orthogonalLoop=1;jettySize=auto;html=1;" edge="1" parent="gEnsQ35gh-dWNM30f2tS-2" source="gEnsQ35gh-dWNM30f2tS-34" target="gEnsQ35gh-dWNM30f2tS-63">
          <mxGeometry relative="1" as="geometry" />
        </mxCell>
        <mxCell id="gEnsQ35gh-dWNM30f2tS-73" style="edgeStyle=orthogonalEdgeStyle;rounded=0;orthogonalLoop=1;jettySize=auto;html=1;entryX=0.5;entryY=0;entryDx=0;entryDy=0;" edge="1" parent="gEnsQ35gh-dWNM30f2tS-2" source="gEnsQ35gh-dWNM30f2tS-34" target="gEnsQ35gh-dWNM30f2tS-66">
          <mxGeometry relative="1" as="geometry">
            <Array as="points">
              <mxPoint x="603" y="560" />
              <mxPoint x="603" y="586" />
              <mxPoint x="604" y="586" />
            </Array>
          </mxGeometry>
        </mxCell>
        <mxCell id="gEnsQ35gh-dWNM30f2tS-34" value="detail" style="ellipse;whiteSpace=wrap;html=1;align=center;" vertex="1" parent="gEnsQ35gh-dWNM30f2tS-2">
          <mxGeometry x="457.101395061488" y="545.63" width="112.11372619095006" height="48.5" as="geometry" />
        </mxCell>
        <mxCell id="gEnsQ35gh-dWNM30f2tS-65" style="edgeStyle=orthogonalEdgeStyle;rounded=0;orthogonalLoop=1;jettySize=auto;html=1;entryX=0.5;entryY=0;entryDx=0;entryDy=0;" edge="1" parent="gEnsQ35gh-dWNM30f2tS-2" source="gEnsQ35gh-dWNM30f2tS-39" target="gEnsQ35gh-dWNM30f2tS-41">
          <mxGeometry relative="1" as="geometry" />
        </mxCell>
        <mxCell id="gEnsQ35gh-dWNM30f2tS-39" value="folder" style="ellipse;whiteSpace=wrap;html=1;align=center;" vertex="1" parent="gEnsQ35gh-dWNM30f2tS-2">
          <mxGeometry x="986.6007904803605" y="315.25" width="112.11372619095006" height="48.5" as="geometry" />
        </mxCell>
        <mxCell id="gEnsQ35gh-dWNM30f2tS-70" style="edgeStyle=orthogonalEdgeStyle;rounded=0;orthogonalLoop=1;jettySize=auto;html=1;entryX=0.5;entryY=0;entryDx=0;entryDy=0;" edge="1" parent="gEnsQ35gh-dWNM30f2tS-2" source="gEnsQ35gh-dWNM30f2tS-41" target="gEnsQ35gh-dWNM30f2tS-68">
          <mxGeometry relative="1" as="geometry" />
        </mxCell>
        <mxCell id="gEnsQ35gh-dWNM30f2tS-71" style="edgeStyle=orthogonalEdgeStyle;rounded=0;orthogonalLoop=1;jettySize=auto;html=1;" edge="1" parent="gEnsQ35gh-dWNM30f2tS-2" source="gEnsQ35gh-dWNM30f2tS-41" target="gEnsQ35gh-dWNM30f2tS-69">
          <mxGeometry relative="1" as="geometry" />
        </mxCell>
        <mxCell id="n-2YInd6xCUwf2FXcgTU-2" style="edgeStyle=orthogonalEdgeStyle;rounded=0;orthogonalLoop=1;jettySize=auto;html=1;" edge="1" parent="gEnsQ35gh-dWNM30f2tS-2" source="gEnsQ35gh-dWNM30f2tS-41" target="n-2YInd6xCUwf2FXcgTU-1">
          <mxGeometry relative="1" as="geometry" />
        </mxCell>
        <mxCell id="gEnsQ35gh-dWNM30f2tS-41" value="list" style="ellipse;whiteSpace=wrap;html=1;align=center;" vertex="1" parent="gEnsQ35gh-dWNM30f2tS-2">
          <mxGeometry x="986.0365633159188" y="436.49999999999994" width="112.11372619095006" height="48.5" as="geometry" />
        </mxCell>
        <mxCell id="gEnsQ35gh-dWNM30f2tS-60" style="edgeStyle=orthogonalEdgeStyle;rounded=0;orthogonalLoop=1;jettySize=auto;html=1;entryX=0.5;entryY=0;entryDx=0;entryDy=0;" edge="1" parent="gEnsQ35gh-dWNM30f2tS-2" source="gEnsQ35gh-dWNM30f2tS-58" target="gEnsQ35gh-dWNM30f2tS-33">
          <mxGeometry relative="1" as="geometry" />
        </mxCell>
        <mxCell id="gEnsQ35gh-dWNM30f2tS-58" value="folder" style="ellipse;whiteSpace=wrap;html=1;align=center;" vertex="1" parent="gEnsQ35gh-dWNM30f2tS-2">
          <mxGeometry x="549.9629446452029" y="299.99999999999994" width="112.11372619095006" height="48.5" as="geometry" />
        </mxCell>
        <mxCell id="gEnsQ35gh-dWNM30f2tS-61" value="download" style="ellipse;whiteSpace=wrap;html=1;align=center;" vertex="1" parent="gEnsQ35gh-dWNM30f2tS-2">
          <mxGeometry x="633.0413950614881" y="545" width="112.11372619095006" height="48.5" as="geometry" />
        </mxCell>
        <mxCell id="gEnsQ35gh-dWNM30f2tS-63" value="show content" style="ellipse;whiteSpace=wrap;html=1;align=center;dashed=1;" vertex="1" parent="gEnsQ35gh-dWNM30f2tS-2">
          <mxGeometry x="462.16013292671664" y="670" width="100" height="40" as="geometry" />
        </mxCell>
        <mxCell id="gEnsQ35gh-dWNM30f2tS-66" value="delete" style="ellipse;whiteSpace=wrap;html=1;align=center;" vertex="1" parent="gEnsQ35gh-dWNM30f2tS-2">
          <mxGeometry x="548.356079762805" y="606.245" width="112.11372619095006" height="48.5" as="geometry" />
        </mxCell>
        <mxCell id="gEnsQ35gh-dWNM30f2tS-72" style="edgeStyle=orthogonalEdgeStyle;rounded=0;orthogonalLoop=1;jettySize=auto;html=1;" edge="1" parent="gEnsQ35gh-dWNM30f2tS-2" source="gEnsQ35gh-dWNM30f2tS-68" target="gEnsQ35gh-dWNM30f2tS-69">
          <mxGeometry relative="1" as="geometry" />
        </mxCell>
        <mxCell id="gEnsQ35gh-dWNM30f2tS-68" value="detail" style="ellipse;whiteSpace=wrap;html=1;align=center;" vertex="1" parent="gEnsQ35gh-dWNM30f2tS-2">
          <mxGeometry x="893.0413950614881" y="555.63" width="112.11372619095006" height="48.5" as="geometry" />
        </mxCell>
        <mxCell id="gEnsQ35gh-dWNM30f2tS-69" value="delete" style="ellipse;whiteSpace=wrap;html=1;align=center;" vertex="1" parent="gEnsQ35gh-dWNM30f2tS-2">
          <mxGeometry x="1093.036079762805" y="555.635" width="112.11372619095006" height="48.5" as="geometry" />
        </mxCell>
        <mxCell id="gEnsQ35gh-dWNM30f2tS-74" value="download" style="ellipse;whiteSpace=wrap;html=1;align=center;" vertex="1" parent="gEnsQ35gh-dWNM30f2tS-2">
          <mxGeometry x="123.32139506148803" y="496" width="112.11372619095006" height="48.5" as="geometry" />
        </mxCell>
        <mxCell id="n-2YInd6xCUwf2FXcgTU-1" value="download" style="ellipse;whiteSpace=wrap;html=1;align=center;" vertex="1" parent="gEnsQ35gh-dWNM30f2tS-2">
          <mxGeometry x="986.6013950614879" y="630" width="112.11372619095006" height="48.5" as="geometry" />
        </mxCell>
        <mxCell id="gEnsQ35gh-dWNM30f2tS-54" value="" style="group" vertex="1" connectable="0" parent="gEnsQ35gh-dWNM30f2tS-1">
          <mxGeometry y="109.12499999999999" width="156.95921666733005" height="72.75" as="geometry" />
        </mxCell>
        <mxCell id="gEnsQ35gh-dWNM30f2tS-55" style="edgeStyle=orthogonalEdgeStyle;rounded=0;orthogonalLoop=1;jettySize=auto;html=1;" edge="1" parent="gEnsQ35gh-dWNM30f2tS-54" source="gEnsQ35gh-dWNM30f2tS-56">
          <mxGeometry relative="1" as="geometry">
            <mxPoint x="156.95921666733005" y="36.375" as="targetPoint" />
          </mxGeometry>
        </mxCell>
        <mxCell id="gEnsQ35gh-dWNM30f2tS-56" value="User" style="shape=umlActor;verticalLabelPosition=bottom;verticalAlign=top;html=1;outlineConnect=0;" vertex="1" parent="gEnsQ35gh-dWNM30f2tS-54">
          <mxGeometry width="42.80705909109002" height="72.75" as="geometry" />
        </mxCell>
      </root>
    </mxGraphModel>
  </diagram>
  <diagram id="-iWH4DLSjDayZ4sHrjRI" name="CV">
    <mxGraphModel dx="1735" dy="1122" grid="1" gridSize="10" guides="1" tooltips="1" connect="1" arrows="1" fold="1" page="1" pageScale="1" pageWidth="827" pageHeight="1169" math="0" shadow="0">
      <root>
        <mxCell id="0" />
        <mxCell id="1" parent="0" />
        <mxCell id="nItGeyeVvAtXf_lOCFmq-1" value="" style="group" vertex="1" connectable="0" parent="1">
          <mxGeometry x="240" y="70" width="1440" height="970" as="geometry" />
        </mxCell>
        <mxCell id="nItGeyeVvAtXf_lOCFmq-2" value="Tool CV" style="swimlane;whiteSpace=wrap;html=1;" vertex="1" parent="nItGeyeVvAtXf_lOCFmq-1">
          <mxGeometry x="156.96" y="-30" width="1283.04" height="820" as="geometry" />
        </mxCell>
        <mxCell id="nItGeyeVvAtXf_lOCFmq-3" style="edgeStyle=orthogonalEdgeStyle;rounded=0;orthogonalLoop=1;jettySize=auto;html=1;entryX=0.5;entryY=0;entryDx=0;entryDy=0;" edge="1" parent="nItGeyeVvAtXf_lOCFmq-2" source="nItGeyeVvAtXf_lOCFmq-6" target="nItGeyeVvAtXf_lOCFmq-10">
          <mxGeometry relative="1" as="geometry" />
        </mxCell>
        <mxCell id="nItGeyeVvAtXf_lOCFmq-6" value="Tools&lt;br&gt;CV" style="rounded=1;arcSize=10;whiteSpace=wrap;html=1;align=center;" vertex="1" parent="nItGeyeVvAtXf_lOCFmq-2">
          <mxGeometry x="549.3572583356554" y="60.62499999999999" width="112.11372619095006" height="48.5" as="geometry" />
        </mxCell>
        <mxCell id="nItGeyeVvAtXf_lOCFmq-9" style="edgeStyle=orthogonalEdgeStyle;rounded=0;orthogonalLoop=1;jettySize=auto;html=1;" edge="1" parent="nItGeyeVvAtXf_lOCFmq-2" source="nItGeyeVvAtXf_lOCFmq-10" target="nItGeyeVvAtXf_lOCFmq-32">
          <mxGeometry relative="1" as="geometry" />
        </mxCell>
        <mxCell id="S6-tfrVCuecGfuEIiht7-3" style="edgeStyle=orthogonalEdgeStyle;rounded=0;orthogonalLoop=1;jettySize=auto;html=1;entryX=0.5;entryY=0;entryDx=0;entryDy=0;" edge="1" parent="nItGeyeVvAtXf_lOCFmq-2" source="nItGeyeVvAtXf_lOCFmq-10" target="S6-tfrVCuecGfuEIiht7-1">
          <mxGeometry relative="1" as="geometry" />
        </mxCell>
        <mxCell id="S6-tfrVCuecGfuEIiht7-4" style="edgeStyle=orthogonalEdgeStyle;rounded=0;orthogonalLoop=1;jettySize=auto;html=1;entryX=0.5;entryY=0;entryDx=0;entryDy=0;" edge="1" parent="nItGeyeVvAtXf_lOCFmq-2" source="nItGeyeVvAtXf_lOCFmq-10" target="S6-tfrVCuecGfuEIiht7-2">
          <mxGeometry relative="1" as="geometry" />
        </mxCell>
        <mxCell id="nItGeyeVvAtXf_lOCFmq-10" value="list" style="ellipse;shape=doubleEllipse;margin=3;whiteSpace=wrap;html=1;align=center;" vertex="1" parent="nItGeyeVvAtXf_lOCFmq-2">
          <mxGeometry x="549.3572583356554" y="194" width="112.11372619095006" height="48.5" as="geometry" />
        </mxCell>
        <mxCell id="S6-tfrVCuecGfuEIiht7-7" style="edgeStyle=orthogonalEdgeStyle;rounded=0;orthogonalLoop=1;jettySize=auto;html=1;entryX=0.5;entryY=0;entryDx=0;entryDy=0;" edge="1" parent="nItGeyeVvAtXf_lOCFmq-2" source="nItGeyeVvAtXf_lOCFmq-32" target="S6-tfrVCuecGfuEIiht7-5">
          <mxGeometry relative="1" as="geometry" />
        </mxCell>
        <mxCell id="nItGeyeVvAtXf_lOCFmq-32" value="update" style="ellipse;whiteSpace=wrap;html=1;align=center;" vertex="1" parent="nItGeyeVvAtXf_lOCFmq-2">
          <mxGeometry x="549.9629446452029" y="299.99999999999994" width="112.11372619095006" height="48.5" as="geometry" />
        </mxCell>
        <mxCell id="S6-tfrVCuecGfuEIiht7-6" style="edgeStyle=orthogonalEdgeStyle;rounded=0;orthogonalLoop=1;jettySize=auto;html=1;entryX=0.5;entryY=0;entryDx=0;entryDy=0;" edge="1" parent="nItGeyeVvAtXf_lOCFmq-2" source="S6-tfrVCuecGfuEIiht7-1" target="S6-tfrVCuecGfuEIiht7-5">
          <mxGeometry relative="1" as="geometry" />
        </mxCell>
        <mxCell id="S6-tfrVCuecGfuEIiht7-1" value="create" style="ellipse;whiteSpace=wrap;html=1;align=center;" vertex="1" parent="nItGeyeVvAtXf_lOCFmq-2">
          <mxGeometry x="283.04294464520285" y="299.99999999999994" width="112.11372619095006" height="48.5" as="geometry" />
        </mxCell>
        <mxCell id="S6-tfrVCuecGfuEIiht7-2" value="delete" style="ellipse;whiteSpace=wrap;html=1;align=center;" vertex="1" parent="nItGeyeVvAtXf_lOCFmq-2">
          <mxGeometry x="823.0429446452029" y="299.99999999999994" width="112.11372619095006" height="48.5" as="geometry" />
        </mxCell>
        <mxCell id="S6-tfrVCuecGfuEIiht7-27" style="edgeStyle=orthogonalEdgeStyle;rounded=0;orthogonalLoop=1;jettySize=auto;html=1;entryX=0.5;entryY=0;entryDx=0;entryDy=0;" edge="1" parent="nItGeyeVvAtXf_lOCFmq-2" source="S6-tfrVCuecGfuEIiht7-5" target="S6-tfrVCuecGfuEIiht7-23">
          <mxGeometry relative="1" as="geometry" />
        </mxCell>
        <mxCell id="S6-tfrVCuecGfuEIiht7-28" style="edgeStyle=orthogonalEdgeStyle;rounded=0;orthogonalLoop=1;jettySize=auto;html=1;entryX=0.5;entryY=0;entryDx=0;entryDy=0;" edge="1" parent="nItGeyeVvAtXf_lOCFmq-2" source="S6-tfrVCuecGfuEIiht7-5" target="S6-tfrVCuecGfuEIiht7-8">
          <mxGeometry relative="1" as="geometry" />
        </mxCell>
        <mxCell id="S6-tfrVCuecGfuEIiht7-29" style="edgeStyle=orthogonalEdgeStyle;rounded=0;orthogonalLoop=1;jettySize=auto;html=1;entryX=0.5;entryY=0;entryDx=0;entryDy=0;" edge="1" parent="nItGeyeVvAtXf_lOCFmq-2" source="S6-tfrVCuecGfuEIiht7-5" target="S6-tfrVCuecGfuEIiht7-24">
          <mxGeometry relative="1" as="geometry" />
        </mxCell>
        <mxCell id="S6-tfrVCuecGfuEIiht7-31" style="edgeStyle=orthogonalEdgeStyle;rounded=0;orthogonalLoop=1;jettySize=auto;html=1;entryX=0.5;entryY=0;entryDx=0;entryDy=0;" edge="1" parent="nItGeyeVvAtXf_lOCFmq-2" source="S6-tfrVCuecGfuEIiht7-5" target="S6-tfrVCuecGfuEIiht7-25">
          <mxGeometry relative="1" as="geometry">
            <Array as="points">
              <mxPoint x="550" y="424" />
            </Array>
          </mxGeometry>
        </mxCell>
        <mxCell id="S6-tfrVCuecGfuEIiht7-32" style="edgeStyle=orthogonalEdgeStyle;rounded=0;orthogonalLoop=1;jettySize=auto;html=1;entryX=0.5;entryY=0;entryDx=0;entryDy=0;" edge="1" parent="nItGeyeVvAtXf_lOCFmq-2" source="S6-tfrVCuecGfuEIiht7-5" target="S6-tfrVCuecGfuEIiht7-26">
          <mxGeometry relative="1" as="geometry">
            <Array as="points">
              <mxPoint x="393" y="424" />
            </Array>
          </mxGeometry>
        </mxCell>
        <mxCell id="S6-tfrVCuecGfuEIiht7-5" value="UI New/edit" style="ellipse;whiteSpace=wrap;html=1;align=center;" vertex="1" parent="nItGeyeVvAtXf_lOCFmq-2">
          <mxGeometry x="413.04294464520285" y="399.99999999999994" width="112.11372619095006" height="48.5" as="geometry" />
        </mxCell>
        <mxCell id="S6-tfrVCuecGfuEIiht7-8" value="Name" style="ellipse;whiteSpace=wrap;html=1;align=center;dashed=1;" vertex="1" parent="nItGeyeVvAtXf_lOCFmq-2">
          <mxGeometry x="274.09999999999997" y="505" width="100" height="40" as="geometry" />
        </mxCell>
        <mxCell id="S6-tfrVCuecGfuEIiht7-23" value="address" style="ellipse;whiteSpace=wrap;html=1;align=center;dashed=1;" vertex="1" parent="nItGeyeVvAtXf_lOCFmq-2">
          <mxGeometry x="418.09999999999997" y="505" width="100" height="40" as="geometry" />
        </mxCell>
        <mxCell id="S6-tfrVCuecGfuEIiht7-24" value="học vấn" style="ellipse;whiteSpace=wrap;html=1;align=center;dashed=1;" vertex="1" parent="nItGeyeVvAtXf_lOCFmq-2">
          <mxGeometry x="564.0999999999999" y="504.5" width="100" height="40" as="geometry" />
        </mxCell>
        <mxCell id="S6-tfrVCuecGfuEIiht7-40" style="edgeStyle=orthogonalEdgeStyle;rounded=0;orthogonalLoop=1;jettySize=auto;html=1;entryX=0.5;entryY=0;entryDx=0;entryDy=0;" edge="1" parent="nItGeyeVvAtXf_lOCFmq-2" source="S6-tfrVCuecGfuEIiht7-25" target="S6-tfrVCuecGfuEIiht7-36">
          <mxGeometry relative="1" as="geometry" />
        </mxCell>
        <mxCell id="S6-tfrVCuecGfuEIiht7-25" value="other" style="ellipse;whiteSpace=wrap;html=1;align=center;dashed=1;" vertex="1" parent="nItGeyeVvAtXf_lOCFmq-2">
          <mxGeometry x="500.4199999999999" y="580" width="100" height="40" as="geometry" />
        </mxCell>
        <mxCell id="S6-tfrVCuecGfuEIiht7-26" value="skill" style="ellipse;whiteSpace=wrap;html=1;align=center;dashed=1;" vertex="1" parent="nItGeyeVvAtXf_lOCFmq-2">
          <mxGeometry x="343.03999999999985" y="580" width="100" height="40" as="geometry" />
        </mxCell>
        <mxCell id="S6-tfrVCuecGfuEIiht7-36" value="List" style="swimlane;fontStyle=0;childLayout=stackLayout;horizontal=1;startSize=26;horizontalStack=0;resizeParent=1;resizeParentMax=0;resizeLast=0;collapsible=1;marginBottom=0;align=center;fontSize=14;" vertex="1" parent="nItGeyeVvAtXf_lOCFmq-2">
          <mxGeometry x="471.03999999999996" y="670" width="160" height="116" as="geometry" />
        </mxCell>
        <mxCell id="S6-tfrVCuecGfuEIiht7-37" value="Bằng cấp" style="text;strokeColor=none;fillColor=none;spacingLeft=4;spacingRight=4;overflow=hidden;rotatable=0;points=[[0,0.5],[1,0.5]];portConstraint=eastwest;fontSize=12;whiteSpace=wrap;html=1;" vertex="1" parent="S6-tfrVCuecGfuEIiht7-36">
          <mxGeometry y="26" width="160" height="30" as="geometry" />
        </mxCell>
        <mxCell id="S6-tfrVCuecGfuEIiht7-38" value="Ngoại khóa" style="text;strokeColor=none;fillColor=none;spacingLeft=4;spacingRight=4;overflow=hidden;rotatable=0;points=[[0,0.5],[1,0.5]];portConstraint=eastwest;fontSize=12;whiteSpace=wrap;html=1;" vertex="1" parent="S6-tfrVCuecGfuEIiht7-36">
          <mxGeometry y="56" width="160" height="30" as="geometry" />
        </mxCell>
        <mxCell id="S6-tfrVCuecGfuEIiht7-39" value="Sở thích ...." style="text;strokeColor=none;fillColor=none;spacingLeft=4;spacingRight=4;overflow=hidden;rotatable=0;points=[[0,0.5],[1,0.5]];portConstraint=eastwest;fontSize=12;whiteSpace=wrap;html=1;" vertex="1" parent="S6-tfrVCuecGfuEIiht7-36">
          <mxGeometry y="86" width="160" height="30" as="geometry" />
        </mxCell>
        <mxCell id="nItGeyeVvAtXf_lOCFmq-40" value="" style="group" vertex="1" connectable="0" parent="nItGeyeVvAtXf_lOCFmq-1">
          <mxGeometry y="109.12499999999999" width="156.95921666733005" height="72.75" as="geometry" />
        </mxCell>
        <mxCell id="nItGeyeVvAtXf_lOCFmq-41" style="edgeStyle=orthogonalEdgeStyle;rounded=0;orthogonalLoop=1;jettySize=auto;html=1;" edge="1" parent="nItGeyeVvAtXf_lOCFmq-40" source="nItGeyeVvAtXf_lOCFmq-42">
          <mxGeometry relative="1" as="geometry">
            <mxPoint x="156.95921666733005" y="36.375" as="targetPoint" />
          </mxGeometry>
        </mxCell>
        <mxCell id="nItGeyeVvAtXf_lOCFmq-42" value="User" style="shape=umlActor;verticalLabelPosition=bottom;verticalAlign=top;html=1;outlineConnect=0;" vertex="1" parent="nItGeyeVvAtXf_lOCFmq-40">
          <mxGeometry width="42.80705909109002" height="72.75" as="geometry" />
        </mxCell>
      </root>
    </mxGraphModel>
  </diagram>
  <diagram id="taNBWmrMvXIN-_GR9WRe" name="redirect_my_website">
    <mxGraphModel dx="954" dy="617" grid="1" gridSize="10" guides="1" tooltips="1" connect="1" arrows="1" fold="1" page="1" pageScale="1" pageWidth="827" pageHeight="1169" math="0" shadow="0">
      <root>
        <mxCell id="0" />
        <mxCell id="1" parent="0" />
        <mxCell id="vao93osdNh8cnDneGgsq-1" value="my website" style="ellipse;shape=cloud;whiteSpace=wrap;html=1;align=center;" vertex="1" parent="1">
          <mxGeometry x="650" y="96" width="100" height="60" as="geometry" />
        </mxCell>
        <mxCell id="vao93osdNh8cnDneGgsq-9" style="edgeStyle=orthogonalEdgeStyle;rounded=0;orthogonalLoop=1;jettySize=auto;html=1;entryX=0;entryY=0.5;entryDx=0;entryDy=0;" edge="1" parent="1" source="vao93osdNh8cnDneGgsq-2" target="vao93osdNh8cnDneGgsq-6">
          <mxGeometry relative="1" as="geometry" />
        </mxCell>
        <mxCell id="vao93osdNh8cnDneGgsq-2" value="User" style="shape=umlActor;verticalLabelPosition=bottom;verticalAlign=top;html=1;outlineConnect=0;" vertex="1" parent="1">
          <mxGeometry x="40" y="90" width="30" height="60" as="geometry" />
        </mxCell>
        <mxCell id="vao93osdNh8cnDneGgsq-5" style="edgeStyle=orthogonalEdgeStyle;rounded=0;orthogonalLoop=1;jettySize=auto;html=1;entryX=0.07;entryY=0.4;entryDx=0;entryDy=0;entryPerimeter=0;" edge="1" parent="1" source="vao93osdNh8cnDneGgsq-4" target="vao93osdNh8cnDneGgsq-1">
          <mxGeometry relative="1" as="geometry" />
        </mxCell>
        <mxCell id="vao93osdNh8cnDneGgsq-4" value="redirect my website" style="rounded=0;whiteSpace=wrap;html=1;" vertex="1" parent="1">
          <mxGeometry x="414" y="90" width="120" height="60" as="geometry" />
        </mxCell>
        <mxCell id="vao93osdNh8cnDneGgsq-10" style="edgeStyle=orthogonalEdgeStyle;rounded=0;orthogonalLoop=1;jettySize=auto;html=1;entryX=0.5;entryY=0;entryDx=0;entryDy=0;" edge="1" parent="1" source="vao93osdNh8cnDneGgsq-6" target="vao93osdNh8cnDneGgsq-8">
          <mxGeometry relative="1" as="geometry" />
        </mxCell>
        <mxCell id="vao93osdNh8cnDneGgsq-6" value="Home page" style="rounded=1;whiteSpace=wrap;html=1;" vertex="1" parent="1">
          <mxGeometry x="190" y="90" width="120" height="60" as="geometry" />
        </mxCell>
        <mxCell id="vao93osdNh8cnDneGgsq-11" style="edgeStyle=orthogonalEdgeStyle;rounded=0;orthogonalLoop=1;jettySize=auto;html=1;entryX=0;entryY=0.5;entryDx=0;entryDy=0;" edge="1" parent="1" source="vao93osdNh8cnDneGgsq-8" target="vao93osdNh8cnDneGgsq-4">
          <mxGeometry relative="1" as="geometry" />
        </mxCell>
        <mxCell id="vao93osdNh8cnDneGgsq-8" value="My website" style="rounded=1;whiteSpace=wrap;html=1;" vertex="1" parent="1">
          <mxGeometry x="190" y="210" width="120" height="60" as="geometry" />
        </mxCell>
      </root>
    </mxGraphModel>
  </diagram>
</mxfile>
